^C:\USERS\KOPSSONOWIE\SOURCE\REPOS\GIERKA\GIERKA\GIERKA\X64\DEBUG\GIERKA.OBJ|C:\USERS\KOPSSONOWIE\SOURCE\REPOS\GIERKA\GIERKA\GIERKA\X64\DEBUG\ŹRÓDŁO.OBJ
C:\USERS\KOPSSONOWIE\SOURCE\REPOS\GIERKA\GIERKA\PACKAGES\ALLEGRO.5.2.3.1\BUILD\NATIVE\V141\X64\LIB\ALLEGRO.LIB
C:\USERS\KOPSSONOWIE\SOURCE\REPOS\GIERKA\GIERKA\PACKAGES\ALLEGRO.5.2.3.1\BUILD\NATIVE\V141\X64\LIB\ALLEGRO_MAIN.LIB
C:\USERS\KOPSSONOWIE\SOURCE\REPOS\GIERKA\GIERKA\PACKAGES\ALLEGRO.5.2.3.1\BUILD\NATIVE\V141\X64\LIB\ALLEGRO_IMAGE.LIB
C:\USERS\KOPSSONOWIE\SOURCE\REPOS\GIERKA\GIERKA\PACKAGES\ALLEGRO.5.2.3.1\BUILD\NATIVE\V141\X64\LIB\ALLEGRO_COLOR.LIB
C:\USERS\KOPSSONOWIE\SOURCE\REPOS\GIERKA\GIERKA\PACKAGES\ALLEGRO.5.2.3.1\BUILD\NATIVE\V141\X64\LIB\ALLEGRO_FONT.LIB
C:\USERS\KOPSSONOWIE\SOURCE\REPOS\GIERKA\GIERKA\PACKAGES\ALLEGRO.5.2.3.1\BUILD\NATIVE\V141\X64\LIB\ALLEGRO_TTF.LIB
C:\USERS\KOPSSONOWIE\SOURCE\REPOS\GIERKA\GIERKA\PACKAGES\ALLEGRO.5.2.3.1\BUILD\NATIVE\V141\X64\LIB\ALLEGRO_DIALOG.LIB
C:\USERS\KOPSSONOWIE\SOURCE\REPOS\GIERKA\GIERKA\PACKAGES\ALLEGRO.5.2.3.1\BUILD\NATIVE\V141\X64\LIB\ALLEGRO_AUDIO.LIB
C:\USERS\KOPSSONOWIE\SOURCE\REPOS\GIERKA\GIERKA\PACKAGES\ALLEGRO.5.2.3.1\BUILD\NATIVE\V141\X64\LIB\ALLEGRO_ACODEC.LIB
C:\USERS\KOPSSONOWIE\SOURCE\REPOS\GIERKA\GIERKA\PACKAGES\ALLEGRO.5.2.3.1\BUILD\NATIVE\V141\X64\LIB\ALLEGRO_PRIMITIVES.LIB
C:\PROGRAM FILES (X86)\WINDOWS KITS\10\LIB\10.0.16299.0\UM\X64\KERNEL32.LIB
C:\PROGRAM FILES (X86)\WINDOWS KITS\10\LIB\10.0.16299.0\UM\X64\USER32.LIB
C:\PROGRAM FILES (X86)\WINDOWS KITS\10\LIB\10.0.16299.0\UM\X64\GDI32.LIB
C:\PROGRAM FILES (X86)\WINDOWS KITS\10\LIB\10.0.16299.0\UM\X64\WINSPOOL.LIB
C:\PROGRAM FILES (X86)\WINDOWS KITS\10\LIB\10.0.16299.0\UM\X64\COMDLG32.LIB
C:\PROGRAM FILES (X86)\WINDOWS KITS\10\LIB\10.0.16299.0\UM\X64\ADVAPI32.LIB
C:\PROGRAM FILES (X86)\WINDOWS KITS\10\LIB\10.0.16299.0\UM\X64\SHELL32.LIB
C:\PROGRAM FILES (X86)\WINDOWS KITS\10\LIB\10.0.16299.0\UM\X64\OLE32.LIB
C:\PROGRAM FILES (X86)\WINDOWS KITS\10\LIB\10.0.16299.0\UM\X64\OLEAUT32.LIB
C:\PROGRAM FILES (X86)\WINDOWS KITS\10\LIB\10.0.16299.0\UM\X64\UUID.LIB
C:\PROGRAM FILES (X86)\WINDOWS KITS\10\LIB\10.0.16299.0\UM\X64\ODBC32.LIB
C:\PROGRAM FILES (X86)\WINDOWS KITS\10\LIB\10.0.16299.0\UM\X64\ODBCCP32.LIB
C:\USERS\KOPSSONOWIE\SOURCE\REPOS\GIERKA\GIERKA\GIERKA\X64\DEBUG\GIERKA.OBJ
C:\USERS\KOPSSONOWIE\SOURCE\REPOS\GIERKA\GIERKA\GIERKA\X64\DEBUG\ŹRóDłO.OBJ
C:\WINDOWS\SYSTEM32\TZRES.DLL
C:\WINDOWS\GLOBALIZATION\SORTING\SORTDEFAULT.NLS
F:\PROGRAM FILES (X86)\MICROSOFT VISUAL STUDIO\VC\TOOLS\MSVC\14.13.26128\LIB\X64\MSVCPRTD.LIB
F:\PROGRAM FILES (X86)\MICROSOFT VISUAL STUDIO\VC\TOOLS\MSVC\14.13.26128\LIB\X64\MSVCRTD.LIB
F:\PROGRAM FILES (X86)\MICROSOFT VISUAL STUDIO\VC\TOOLS\MSVC\14.13.26128\LIB\X64\OLDNAMES.LIB
F:\PROGRAM FILES (X86)\MICROSOFT VISUAL STUDIO\VC\TOOLS\MSVC\14.13.26128\LIB\X64\VCRUNTIMED.LIB
C:\PROGRAM FILES (X86)\WINDOWS KITS\10\LIB\10.0.16299.0\UCRT\X64\UCRTD.LIB
F:\PROGRAM FILES (X86)\MICROSOFT VISUAL STUDIO\VC\TOOLS\MSVC\14.13.26128\BIN\HOSTX86\X64\VCTIP.EXE
